[
    {
        "level": 0,
        "name": "aframe-babia-components:1.1.2"
    },
    {
        "level": 1,
        "name": "accessor-fn:1.3.0"
    },
    {
        "level": 1,
        "name": "aframe:1.2.0"
    },
    {
        "level": 2,
        "name": "custom-event-polyfill:1.0.7"
    },
    {
        "level": 2,
        "name": "debug:2.2.0"
    },
    {
        "level": 2,
        "name": "deep-assign:2.0.0"
    },
    {
        "level": 3,
        "name": "is-obj:1.0.1"
    },
    {
        "level": 2,
        "name": "document-register-element:0.5.4"
    },
    {
        "level": 2,
        "name": "load-bmfont:1.4.1"
    },
    {
        "level": 3,
        "name": "buffer-equal:0.0.1"
    },
    {
        "level": 2,
        "name": "mime:1.6.0"
    },
    {
        "level": 3,
        "name": "parse-bmfont-ascii:1.0.6"
    },
    {
        "level": 3,
        "name": "parse-bmfont-binary:1.0.6"
    },
    {
        "level": 3,
        "name": "parse-bmfont-xml:1.1.4"
    },
    {
        "level": 4,
        "name": "xml-parse-from-string:1.0.1"
    },
    {
        "level": 4,
        "name": "xml2js:0.4.23"
    },
    {
        "level": 5,
        "name": "sax:1.2.4"
    },
    {
        "level": 5,
        "name": "xmlbuilder:11.0.1"
    },
    {
        "level": 3,
        "name": "phin:2.9.3"
    },
    {
        "level": 3,
        "name": "xhr:2.6.0"
    },
    {
        "level": 4,
        "name": "global:4.4.0"
    },
    {
        "level": 5,
        "name": "min-document:2.19.0"
    },
    {
        "level": 6,
        "name": "dom-walk:0.1.2"
    },
    {
        "level": 2,
        "name": "process:0.11.10"
    },
    {
        "level": 4,
        "name": "is-function:1.0.2"
    },
    {
        "level": 4,
        "name": "parse-headers:2.0.3"
    },
    {
        "level": 2,
        "name": "xtend:4.0.2"
    },
    {
        "level": 2,
        "name": "object-assign:4.1.1"
    },
    {
        "level": 2,
        "name": "present:0.0.6"
    },
    {
        "level": 2,
        "name": "promise-polyfill:3.1.0"
    },
    {
        "level": 2,
        "name": "super-animejs:3.1.0"
    },
    {
        "level": 2,
        "name": "super-three:0.125.1"
    },
    {
        "level": 2,
        "name": "three-bmfont-text:2.3.0"
    },
    {
        "level": 3,
        "name": "array-shuffle:1.0.1"
    },
    {
        "level": 2,
        "name": "inherits:2.0.4"
    },
    {
        "level": 3,
        "name": "layout-bmfont-text:1.3.4"
    },
    {
        "level": 4,
        "name": "as-number:1.0.0"
    },
    {
        "level": 4,
        "name": "word-wrapper:1.0.7"
    },
    {
        "level": 3,
        "name": "nice-color-palettes:1.0.1"
    },
    {
        "level": 3,
        "name": "map-limit:0.0.1"
    },
    {
        "level": 2,
        "name": "minimist:1.2.5"
    },
    {
        "level": 4,
        "name": "new-array:1.0.0"
    },
    {
        "level": 4,
        "name": "xhr-request:1.1.0"
    },
    {
        "level": 5,
        "name": "buffer-to-arraybuffer:0.0.5"
    },
    {
        "level": 5,
        "name": "query-string:5.1.1"
    },
    {
        "level": 6,
        "name": "decode-uri-component:0.2.0"
    },
    {
        "level": 6,
        "name": "strict-uri-encode:1.1.0"
    },
    {
        "level": 5,
        "name": "simple-get:2.8.1"
    },
    {
        "level": 6,
        "name": "decompress-response:3.3.0"
    },
    {
        "level": 7,
        "name": "mimic-response:1.0.1"
    },
    {
        "level": 2,
        "name": "once:1.3.3"
    },
    {
        "level": 4,
        "name": "simple-concat:1.0.1"
    },
    {
        "level": 5,
        "name": "timed-out:4.0.1"
    },
    {
        "level": 5,
        "name": "url-set-query:1.0.0"
    },
    {
        "level": 3,
        "name": "quad-indices:2.0.1"
    },
    {
        "level": 4,
        "name": "an-array:1.0.0"
    },
    {
        "level": 4,
        "name": "dtype:2.0.0"
    },
    {
        "level": 3,
        "name": "is-buffer:1.1.6"
    },
    {
        "level": 3,
        "name": "three-buffer-vertex-data:1.1.0"
    },
    {
        "level": 4,
        "name": "flatten-vertex-data:1.0.2"
    },
    {
        "level": 2,
        "name": "webvr-polyfill:0.10.12"
    },
    {
        "level": 3,
        "name": "cardboard-vr-display:1.0.19"
    },
    {
        "level": 4,
        "name": "gl-preserve-state:1.0.0"
    },
    {
        "level": 4,
        "name": "nosleep.js:0.7.0"
    },
    {
        "level": 4,
        "name": "webvr-polyfill-dpdb:1.0.18"
    },
    {
        "level": 1,
        "name": "browserify:13.3.0"
    },
    {
        "level": 2,
        "name": "JSONStream:1.3.5"
    },
    {
        "level": 3,
        "name": "jsonparse:1.3.1"
    },
    {
        "level": 2,
        "name": "through:2.3.8"
    },
    {
        "level": 2,
        "name": "assert:1.5.0"
    },
    {
        "level": 3,
        "name": "util:0.10.3"
    },
    {
        "level": 4,
        "name": "inherits:2.0.1"
    },
    {
        "level": 2,
        "name": "browser-pack:6.1.0"
    },
    {
        "level": 3,
        "name": "combine-source-map:0.8.0"
    },
    {
        "level": 2,
        "name": "convert-source-map:1.1.3"
    },
    {
        "level": 4,
        "name": "inline-source-map:0.6.2"
    },
    {
        "level": 2,
        "name": "source-map:0.5.7"
    },
    {
        "level": 4,
        "name": "lodash.memoize:3.0.4"
    },
    {
        "level": 2,
        "name": "defined:1.0.0"
    },
    {
        "level": 2,
        "name": "safe-buffer:5.2.1"
    },
    {
        "level": 2,
        "name": "through2:2.0.5"
    },
    {
        "level": 3,
        "name": "umd:3.0.3"
    },
    {
        "level": 2,
        "name": "browser-resolve:1.11.3"
    },
    {
        "level": 3,
        "name": "resolve:1.1.7"
    },
    {
        "level": 2,
        "name": "browserify-zlib:0.1.4"
    },
    {
        "level": 3,
        "name": "pako:0.2.9"
    },
    {
        "level": 2,
        "name": "buffer:4.9.2"
    },
    {
        "level": 3,
        "name": "base64-js:1.5.1"
    },
    {
        "level": 3,
        "name": "ieee754:1.2.1"
    },
    {
        "level": 3,
        "name": "isarray:1.0.0"
    },
    {
        "level": 2,
        "name": "cached-path-relative:1.0.2"
    },
    {
        "level": 2,
        "name": "concat-stream:1.5.2"
    },
    {
        "level": 3,
        "name": "readable-stream:2.0.6"
    },
    {
        "level": 4,
        "name": "process-nextick-args:1.0.7"
    },
    {
        "level": 3,
        "name": "core-util-is:1.0.2"
    },
    {
        "level": 2,
        "name": "string_decoder:0.10.31"
    },
    {
        "level": 3,
        "name": "util-deprecate:1.0.2"
    },
    {
        "level": 3,
        "name": "typedarray:0.0.6"
    },
    {
        "level": 2,
        "name": "console-browserify:1.2.0"
    },
    {
        "level": 2,
        "name": "constants-browserify:1.0.0"
    },
    {
        "level": 2,
        "name": "crypto-browserify:3.12.0"
    },
    {
        "level": 3,
        "name": "browserify-cipher:1.0.1"
    },
    {
        "level": 4,
        "name": "browserify-aes:1.2.0"
    },
    {
        "level": 5,
        "name": "buffer-xor:1.0.3"
    },
    {
        "level": 4,
        "name": "cipher-base:1.0.4"
    },
    {
        "level": 3,
        "name": "create-hash:1.2.0"
    },
    {
        "level": 4,
        "name": "evp_bytestokey:1.0.3"
    },
    {
        "level": 4,
        "name": "browserify-des:1.0.2"
    },
    {
        "level": 5,
        "name": "des.js:1.0.1"
    },
    {
        "level": 5,
        "name": "minimalistic-assert:1.0.1"
    },
    {
        "level": 4,
        "name": "md5.js:1.3.5"
    },
    {
        "level": 3,
        "name": "browserify-sign:4.2.1"
    },
    {
        "level": 4,
        "name": "bn.js:5.2.0"
    },
    {
        "level": 4,
        "name": "browserify-rsa:4.1.0"
    },
    {
        "level": 3,
        "name": "randombytes:2.1.0"
    },
    {
        "level": 4,
        "name": "readable-stream:3.6.0"
    },
    {
        "level": 3,
        "name": "string_decoder:1.3.0"
    },
    {
        "level": 3,
        "name": "create-hmac:1.1.7"
    },
    {
        "level": 4,
        "name": "elliptic:6.5.4"
    },
    {
        "level": 5,
        "name": "brorand:1.1.0"
    },
    {
        "level": 4,
        "name": "bn.js:4.12.0"
    },
    {
        "level": 5,
        "name": "hash.js:1.1.7"
    },
    {
        "level": 5,
        "name": "hmac-drbg:1.0.1"
    },
    {
        "level": 5,
        "name": "minimalistic-crypto-utils:1.0.1"
    },
    {
        "level": 4,
        "name": "parse-asn1:5.1.6"
    },
    {
        "level": 5,
        "name": "asn1.js:5.4.1"
    },
    {
        "level": 4,
        "name": "safer-buffer:2.1.2"
    },
    {
        "level": 3,
        "name": "pbkdf2:3.1.2"
    },
    {
        "level": 3,
        "name": "create-ecdh:4.0.4"
    },
    {
        "level": 5,
        "name": "hash-base:3.1.0"
    },
    {
        "level": 4,
        "name": "ripemd160:2.0.2"
    },
    {
        "level": 3,
        "name": "sha.js:2.4.11"
    },
    {
        "level": 3,
        "name": "diffie-hellman:5.0.3"
    },
    {
        "level": 4,
        "name": "miller-rabin:4.0.1"
    },
    {
        "level": 3,
        "name": "public-encrypt:4.0.3"
    },
    {
        "level": 3,
        "name": "randomfill:1.0.4"
    },
    {
        "level": 2,
        "name": "deps-sort:2.0.1"
    },
    {
        "level": 3,
        "name": "shasum-object:1.0.0"
    },
    {
        "level": 4,
        "name": "fast-safe-stringify:2.0.7"
    },
    {
        "level": 2,
        "name": "subarg:1.0.0"
    },
    {
        "level": 2,
        "name": "domain-browser:1.1.7"
    },
    {
        "level": 2,
        "name": "duplexer2:0.1.4"
    },
    {
        "level": 2,
        "name": "readable-stream:2.3.7"
    },
    {
        "level": 2,
        "name": "events:1.1.1"
    },
    {
        "level": 2,
        "name": "glob:7.1.7"
    },
    {
        "level": 3,
        "name": "fs.realpath:1.0.0"
    },
    {
        "level": 3,
        "name": "inflight:1.0.6"
    },
    {
        "level": 3,
        "name": "wrappy:1.0.2"
    },
    {
        "level": 2,
        "name": "minimatch:3.0.4"
    },
    {
        "level": 3,
        "name": "path-is-absolute:1.0.1"
    },
    {
        "level": 2,
        "name": "has:1.0.3"
    },
    {
        "level": 3,
        "name": "function-bind:1.1.1"
    },
    {
        "level": 2,
        "name": "htmlescape:1.1.1"
    },
    {
        "level": 2,
        "name": "https-browserify:0.0.1"
    },
    {
        "level": 2,
        "name": "insert-module-globals:7.2.1"
    },
    {
        "level": 3,
        "name": "acorn-node:1.8.2"
    },
    {
        "level": 4,
        "name": "acorn:7.4.1"
    },
    {
        "level": 4,
        "name": "acorn-walk:7.2.0"
    },
    {
        "level": 3,
        "name": "concat-stream:1.6.2"
    },
    {
        "level": 4,
        "name": "buffer-from:1.1.1"
    },
    {
        "level": 3,
        "name": "undeclared-identifiers:1.1.3"
    },
    {
        "level": 4,
        "name": "dash-ast:1.0.0"
    },
    {
        "level": 4,
        "name": "get-assigned-identifiers:1.2.0"
    },
    {
        "level": 2,
        "name": "labeled-stream-splicer:2.0.2"
    },
    {
        "level": 3,
        "name": "stream-splicer:2.0.1"
    },
    {
        "level": 2,
        "name": "module-deps:4.1.1"
    },
    {
        "level": 3,
        "name": "detective:4.7.1"
    },
    {
        "level": 2,
        "name": "acorn:5.7.4"
    },
    {
        "level": 2,
        "name": "parents:1.0.1"
    },
    {
        "level": 2,
        "name": "resolve:1.20.0"
    },
    {
        "level": 3,
        "name": "stream-combiner2:1.1.1"
    },
    {
        "level": 2,
        "name": "os-browserify:0.1.2"
    },
    {
        "level": 3,
        "name": "path-platform:0.11.15"
    },
    {
        "level": 2,
        "name": "path-browserify:0.0.1"
    },
    {
        "level": 2,
        "name": "punycode:1.4.1"
    },
    {
        "level": 2,
        "name": "querystring-es3:0.2.1"
    },
    {
        "level": 2,
        "name": "read-only-stream:2.0.0"
    },
    {
        "level": 3,
        "name": "process-nextick-args:2.0.1"
    },
    {
        "level": 3,
        "name": "safe-buffer:5.1.2"
    },
    {
        "level": 3,
        "name": "string_decoder:1.1.1"
    },
    {
        "level": 3,
        "name": "is-core-module:2.4.0"
    },
    {
        "level": 3,
        "name": "path-parse:1.0.6"
    },
    {
        "level": 2,
        "name": "shasum:1.0.2"
    },
    {
        "level": 3,
        "name": "json-stable-stringify:0.0.1"
    },
    {
        "level": 4,
        "name": "jsonify:0.0.0"
    },
    {
        "level": 2,
        "name": "shell-quote:1.7.2"
    },
    {
        "level": 2,
        "name": "stream-browserify:2.0.2"
    },
    {
        "level": 2,
        "name": "stream-http:2.8.3"
    },
    {
        "level": 3,
        "name": "builtin-status-codes:3.0.0"
    },
    {
        "level": 3,
        "name": "to-arraybuffer:1.0.1"
    },
    {
        "level": 2,
        "name": "syntax-error:1.4.0"
    },
    {
        "level": 2,
        "name": "timers-browserify:1.4.2"
    },
    {
        "level": 2,
        "name": "tty-browserify:0.0.1"
    },
    {
        "level": 2,
        "name": "url:0.11.0"
    },
    {
        "level": 3,
        "name": "querystring:0.2.0"
    },
    {
        "level": 3,
        "name": "punycode:1.3.2"
    },
    {
        "level": 2,
        "name": "util:0.10.4"
    },
    {
        "level": 3,
        "name": "inherits:2.0.3"
    },
    {
        "level": 2,
        "name": "vm-browserify:0.0.4"
    },
    {
        "level": 3,
        "name": "indexof:0.0.1"
    },
    {
        "level": 1,
        "name": "browserify-css:0.8.4"
    },
    {
        "level": 2,
        "name": "concat-stream:1.4.11"
    },
    {
        "level": 3,
        "name": "readable-stream:1.1.14"
    },
    {
        "level": 4,
        "name": "isarray:0.0.1"
    },
    {
        "level": 2,
        "name": "through2:0.6.5"
    },
    {
        "level": 3,
        "name": "readable-stream:1.0.34"
    },
    {
        "level": 2,
        "name": "clean-css:2.2.23"
    },
    {
        "level": 3,
        "name": "commander:2.2.0"
    },
    {
        "level": 2,
        "name": "css:1.6.0"
    },
    {
        "level": 3,
        "name": "css-parse:1.7.0"
    },
    {
        "level": 3,
        "name": "css-stringify:1.4.1"
    },
    {
        "level": 4,
        "name": "source-map:0.1.43"
    },
    {
        "level": 5,
        "name": "amdefine:1.0.1"
    },
    {
        "level": 2,
        "name": "find-node-modules:1.0.4"
    },
    {
        "level": 3,
        "name": "findup-sync:0.4.2"
    },
    {
        "level": 4,
        "name": "detect-file:0.1.0"
    },
    {
        "level": 5,
        "name": "fs-exists-sync:0.1.0"
    },
    {
        "level": 3,
        "name": "is-glob:2.0.1"
    },
    {
        "level": 2,
        "name": "micromatch:2.3.11"
    },
    {
        "level": 4,
        "name": "resolve-dir:0.1.1"
    },
    {
        "level": 5,
        "name": "expand-tilde:1.2.2"
    },
    {
        "level": 4,
        "name": "os-homedir:1.0.2"
    },
    {
        "level": 5,
        "name": "global-modules:0.2.3"
    },
    {
        "level": 6,
        "name": "global-prefix:0.1.5"
    },
    {
        "level": 7,
        "name": "homedir-polyfill:1.0.3"
    },
    {
        "level": 8,
        "name": "parse-passwd:1.0.0"
    },
    {
        "level": 3,
        "name": "ini:1.3.8"
    },
    {
        "level": 6,
        "name": "is-windows:0.2.0"
    },
    {
        "level": 2,
        "name": "which:1.3.1"
    },
    {
        "level": 3,
        "name": "merge:1.2.1"
    },
    {
        "level": 2,
        "name": "lodash:3.6.0"
    },
    {
        "level": 1,
        "name": "browserify-derequire:0.9.6"
    },
    {
        "level": 2,
        "name": "through2:2.0.3"
    },
    {
        "level": 2,
        "name": "derequire:2.0.6"
    },
    {
        "level": 3,
        "name": "acorn:4.0.13"
    },
    {
        "level": 3,
        "name": "escope:3.6.0"
    },
    {
        "level": 3,
        "name": "es6-map:0.1.5"
    },
    {
        "level": 4,
        "name": "es6-weak-map:2.0.3"
    },
    {
        "level": 4,
        "name": "d:1.0.1"
    },
    {
        "level": 4,
        "name": "es5-ext:0.10.53"
    },
    {
        "level": 4,
        "name": "es6-iterator:2.0.3"
    },
    {
        "level": 4,
        "name": "es6-symbol:3.1.3"
    },
    {
        "level": 4,
        "name": "esrecurse:4.3.0"
    },
    {
        "level": 5,
        "name": "estraverse:5.2.0"
    },
    {
        "level": 3,
        "name": "estraverse:4.3.0"
    },
    {
        "level": 2,
        "name": "yargs:6.6.0"
    },
    {
        "level": 1,
        "name": "browserify-istanbul:2.0.0"
    },
    {
        "level": 3,
        "name": "brace-expansion:1.1.11"
    },
    {
        "level": 4,
        "name": "balanced-match:1.0.2"
    },
    {
        "level": 4,
        "name": "concat-map:0.0.1"
    },
    {
        "level": 1,
        "name": "budo:8.4.0"
    },
    {
        "level": 2,
        "name": "bole:2.0.0"
    },
    {
        "level": 3,
        "name": "individual:3.0.0"
    },
    {
        "level": 3,
        "name": "json-stringify-safe:5.0.1"
    },
    {
        "level": 2,
        "name": "chokidar:1.7.0"
    },
    {
        "level": 3,
        "name": "anymatch:1.3.2"
    },
    {
        "level": 3,
        "name": "normalize-path:2.1.1"
    },
    {
        "level": 3,
        "name": "async-each:1.0.3"
    },
    {
        "level": 3,
        "name": "fsevents:1.2.13"
    },
    {
        "level": 4,
        "name": "bindings:1.5.0"
    },
    {
        "level": 5,
        "name": "file-uri-to-path:1.0.0"
    },
    {
        "level": 4,
        "name": "nan:2.14.2"
    },
    {
        "level": 3,
        "name": "glob-parent:2.0.0"
    },
    {
        "level": 3,
        "name": "is-binary-path:1.0.1"
    },
    {
        "level": 4,
        "name": "binary-extensions:1.13.1"
    },
    {
        "level": 3,
        "name": "is-extglob:1.0.0"
    },
    {
        "level": 3,
        "name": "readdirp:2.2.1"
    },
    {
        "level": 2,
        "name": "graceful-fs:4.2.6"
    },
    {
        "level": 4,
        "name": "micromatch:3.1.10"
    },
    {
        "level": 5,
        "name": "define-property:2.0.2"
    },
    {
        "level": 6,
        "name": "is-descriptor:1.0.2"
    },
    {
        "level": 7,
        "name": "is-accessor-descriptor:1.0.0"
    },
    {
        "level": 5,
        "name": "kind-of:6.0.3"
    },
    {
        "level": 7,
        "name": "is-data-descriptor:1.0.0"
    },
    {
        "level": 6,
        "name": "isobject:3.0.1"
    },
    {
        "level": 5,
        "name": "extend-shallow:3.0.2"
    },
    {
        "level": 6,
        "name": "assign-symbols:1.0.0"
    },
    {
        "level": 6,
        "name": "is-extendable:1.0.1"
    },
    {
        "level": 7,
        "name": "is-plain-object:2.0.4"
    },
    {
        "level": 5,
        "name": "fragment-cache:0.2.1"
    },
    {
        "level": 6,
        "name": "map-cache:0.2.2"
    },
    {
        "level": 5,
        "name": "nanomatch:1.2.13"
    },
    {
        "level": 5,
        "name": "arr-diff:4.0.0"
    },
    {
        "level": 5,
        "name": "array-unique:0.3.2"
    },
    {
        "level": 6,
        "name": "is-windows:1.0.2"
    },
    {
        "level": 5,
        "name": "object.pick:1.3.0"
    },
    {
        "level": 5,
        "name": "regex-not:1.0.2"
    },
    {
        "level": 5,
        "name": "snapdragon:0.8.2"
    },
    {
        "level": 5,
        "name": "to-regex:3.0.2"
    },
    {
        "level": 5,
        "name": "braces:2.3.2"
    },
    {
        "level": 4,
        "name": "arr-flatten:1.1.0"
    },
    {
        "level": 6,
        "name": "extend-shallow:2.0.1"
    },
    {
        "level": 4,
        "name": "is-extendable:0.1.1"
    },
    {
        "level": 6,
        "name": "fill-range:4.0.0"
    },
    {
        "level": 7,
        "name": "is-number:3.0.0"
    },
    {
        "level": 3,
        "name": "kind-of:3.2.2"
    },
    {
        "level": 4,
        "name": "repeat-string:1.6.1"
    },
    {
        "level": 7,
        "name": "to-regex-range:2.1.1"
    },
    {
        "level": 4,
        "name": "repeat-element:1.1.4"
    },
    {
        "level": 6,
        "name": "snapdragon-node:2.1.1"
    },
    {
        "level": 6,
        "name": "define-property:1.0.0"
    },
    {
        "level": 7,
        "name": "snapdragon-util:3.0.1"
    },
    {
        "level": 6,
        "name": "split-string:3.1.0"
    },
    {
        "level": 5,
        "name": "extglob:2.0.4"
    },
    {
        "level": 6,
        "name": "expand-brackets:2.1.4"
    },
    {
        "level": 7,
        "name": "posix-character-classes:0.1.1"
    },
    {
        "level": 3,
        "name": "debug:2.6.9"
    },
    {
        "level": 3,
        "name": "ms:2.0.0"
    },
    {
        "level": 6,
        "name": "define-property:0.2.5"
    },
    {
        "level": 7,
        "name": "is-descriptor:0.1.6"
    },
    {
        "level": 8,
        "name": "is-accessor-descriptor:0.1.6"
    },
    {
        "level": 8,
        "name": "is-data-descriptor:0.1.4"
    },
    {
        "level": 8,
        "name": "kind-of:5.1.0"
    },
    {
        "level": 6,
        "name": "safe-regex:1.1.0"
    },
    {
        "level": 7,
        "name": "ret:0.1.15"
    },
    {
        "level": 6,
        "name": "base:0.11.2"
    },
    {
        "level": 7,
        "name": "cache-base:1.0.1"
    },
    {
        "level": 8,
        "name": "collection-visit:1.0.0"
    },
    {
        "level": 9,
        "name": "map-visit:1.0.0"
    },
    {
        "level": 9,
        "name": "object-visit:1.0.1"
    },
    {
        "level": 7,
        "name": "component-emitter:1.3.0"
    },
    {
        "level": 8,
        "name": "get-value:2.0.6"
    },
    {
        "level": 8,
        "name": "has-value:1.0.0"
    },
    {
        "level": 9,
        "name": "has-values:1.0.0"
    },
    {
        "level": 10,
        "name": "kind-of:4.0.0"
    },
    {
        "level": 8,
        "name": "set-value:2.0.1"
    },
    {
        "level": 8,
        "name": "to-object-path:0.3.0"
    },
    {
        "level": 8,
        "name": "union-value:1.0.1"
    },
    {
        "level": 8,
        "name": "arr-union:3.1.0"
    },
    {
        "level": 8,
        "name": "unset-value:1.0.0"
    },
    {
        "level": 9,
        "name": "has-value:0.3.1"
    },
    {
        "level": 6,
        "name": "isobject:2.1.0"
    },
    {
        "level": 10,
        "name": "has-values:0.1.4"
    },
    {
        "level": 7,
        "name": "class-utils:0.3.6"
    },
    {
        "level": 8,
        "name": "static-extend:0.1.2"
    },
    {
        "level": 9,
        "name": "object-copy:0.1.0"
    },
    {
        "level": 10,
        "name": "copy-descriptor:0.1.1"
    },
    {
        "level": 7,
        "name": "mixin-deep:1.3.2"
    },
    {
        "level": 5,
        "name": "for-in:1.0.2"
    },
    {
        "level": 7,
        "name": "pascalcase:0.1.1"
    },
    {
        "level": 6,
        "name": "source-map-resolve:0.5.3"
    },
    {
        "level": 7,
        "name": "atob:2.1.2"
    },
    {
        "level": 7,
        "name": "resolve-url:0.2.1"
    },
    {
        "level": 7,
        "name": "source-map-url:0.4.1"
    },
    {
        "level": 7,
        "name": "urix:0.1.0"
    },
    {
        "level": 6,
        "name": "use:3.1.1"
    },
    {
        "level": 2,
        "name": "connect-pushstate:1.1.0"
    },
    {
        "level": 2,
        "name": "garnish:5.2.0"
    },
    {
        "level": 3,
        "name": "chalk:0.5.1"
    },
    {
        "level": 4,
        "name": "ansi-styles:1.1.0"
    },
    {
        "level": 4,
        "name": "strip-ansi:0.3.0"
    },
    {
        "level": 5,
        "name": "ansi-regex:0.2.1"
    },
    {
        "level": 2,
        "name": "escape-string-regexp:1.0.5"
    },
    {
        "level": 4,
        "name": "has-ansi:0.1.0"
    },
    {
        "level": 4,
        "name": "supports-color:0.2.0"
    },
    {
        "level": 3,
        "name": "pad-left:2.1.0"
    },
    {
        "level": 3,
        "name": "pad-right:0.2.2"
    },
    {
        "level": 3,
        "name": "prettier-bytes:1.0.4"
    },
    {
        "level": 3,
        "name": "pretty-ms:2.1.0"
    },
    {
        "level": 4,
        "name": "is-finite:1.1.0"
    },
    {
        "level": 4,
        "name": "parse-ms:1.0.1"
    },
    {
        "level": 4,
        "name": "plur:1.0.0"
    },
    {
        "level": 3,
        "name": "right-now:1.0.0"
    },
    {
        "level": 3,
        "name": "split2:0.2.1"
    },
    {
        "level": 2,
        "name": "stdout-stream:1.4.1"
    },
    {
        "level": 2,
        "name": "url-trim:1.0.0"
    },
    {
        "level": 2,
        "name": "get-ports:1.0.3"
    },
    {
        "level": 2,
        "name": "inject-lr-script:2.2.0"
    },
    {
        "level": 2,
        "name": "resp-modifier:6.0.2"
    },
    {
        "level": 2,
        "name": "internal-ip:1.2.0"
    },
    {
        "level": 2,
        "name": "meow:3.7.0"
    },
    {
        "level": 3,
        "name": "arr-diff:2.0.0"
    },
    {
        "level": 3,
        "name": "array-unique:0.2.1"
    },
    {
        "level": 3,
        "name": "braces:1.8.5"
    },
    {
        "level": 4,
        "name": "expand-range:1.8.2"
    },
    {
        "level": 5,
        "name": "fill-range:2.2.4"
    },
    {
        "level": 6,
        "name": "is-number:2.1.0"
    },
    {
        "level": 6,
        "name": "randomatic:3.1.1"
    },
    {
        "level": 7,
        "name": "math-random:1.0.4"
    },
    {
        "level": 7,
        "name": "is-number:4.0.0"
    },
    {
        "level": 4,
        "name": "preserve:0.2.0"
    },
    {
        "level": 3,
        "name": "expand-brackets:0.1.5"
    },
    {
        "level": 4,
        "name": "is-posix-bracket:0.1.1"
    },
    {
        "level": 3,
        "name": "extglob:0.3.2"
    },
    {
        "level": 3,
        "name": "filename-regex:2.0.1"
    },
    {
        "level": 4,
        "name": "remove-trailing-separator:1.1.0"
    },
    {
        "level": 3,
        "name": "object.omit:2.0.1"
    },
    {
        "level": 4,
        "name": "for-own:0.1.5"
    },
    {
        "level": 3,
        "name": "parse-glob:3.0.4"
    },
    {
        "level": 4,
        "name": "glob-base:0.3.0"
    },
    {
        "level": 4,
        "name": "is-dotfile:1.0.3"
    },
    {
        "level": 3,
        "name": "regex-cache:0.4.4"
    },
    {
        "level": 4,
        "name": "is-equal-shallow:0.1.3"
    },
    {
        "level": 5,
        "name": "is-primitive:2.0.0"
    },
    {
        "level": 2,
        "name": "opn:3.0.3"
    },
    {
        "level": 2,
        "name": "serve-static:1.14.1"
    },
    {
        "level": 3,
        "name": "encodeurl:1.0.2"
    },
    {
        "level": 3,
        "name": "escape-html:1.0.3"
    },
    {
        "level": 3,
        "name": "parseurl:1.3.3"
    },
    {
        "level": 3,
        "name": "send:0.17.1"
    },
    {
        "level": 3,
        "name": "depd:1.1.2"
    },
    {
        "level": 4,
        "name": "destroy:1.0.4"
    },
    {
        "level": 4,
        "name": "etag:1.8.1"
    },
    {
        "level": 4,
        "name": "fresh:0.5.2"
    },
    {
        "level": 4,
        "name": "http-errors:1.7.3"
    },
    {
        "level": 4,
        "name": "setprototypeof:1.1.1"
    },
    {
        "level": 4,
        "name": "statuses:1.5.0"
    },
    {
        "level": 4,
        "name": "toidentifier:1.0.0"
    },
    {
        "level": 3,
        "name": "on-finished:2.3.0"
    },
    {
        "level": 2,
        "name": "range-parser:1.2.1"
    },
    {
        "level": 4,
        "name": "ms:2.1.1"
    },
    {
        "level": 2,
        "name": "simple-html-index:1.5.0"
    },
    {
        "level": 3,
        "name": "from2-string:1.1.0"
    },
    {
        "level": 4,
        "name": "from2:2.3.0"
    },
    {
        "level": 2,
        "name": "stacked:1.1.1"
    },
    {
        "level": 2,
        "name": "strip-ansi:3.0.1"
    },
    {
        "level": 3,
        "name": "ansi-regex:2.1.1"
    },
    {
        "level": 2,
        "name": "term-color:1.0.1"
    },
    {
        "level": 3,
        "name": "ansi-styles:2.0.1"
    },
    {
        "level": 3,
        "name": "supports-color:1.3.1"
    },
    {
        "level": 2,
        "name": "tiny-lr:0.2.1"
    },
    {
        "level": 3,
        "name": "body-parser:1.14.2"
    },
    {
        "level": 4,
        "name": "http-errors:1.3.1"
    },
    {
        "level": 4,
        "name": "qs:5.2.0"
    },
    {
        "level": 4,
        "name": "bytes:2.2.0"
    },
    {
        "level": 3,
        "name": "content-type:1.0.4"
    },
    {
        "level": 4,
        "name": "iconv-lite:0.4.13"
    },
    {
        "level": 4,
        "name": "raw-body:2.1.7"
    },
    {
        "level": 5,
        "name": "bytes:2.4.0"
    },
    {
        "level": 4,
        "name": "unpipe:1.0.0"
    },
    {
        "level": 3,
        "name": "type-is:1.6.18"
    },
    {
        "level": 3,
        "name": "faye-websocket:0.10.0"
    },
    {
        "level": 4,
        "name": "websocket-driver:0.7.4"
    },
    {
        "level": 5,
        "name": "http-parser-js:0.5.3"
    },
    {
        "level": 5,
        "name": "websocket-extensions:0.1.4"
    },
    {
        "level": 3,
        "name": "livereload-js:2.4.0"
    },
    {
        "level": 3,
        "name": "qs:5.1.0"
    },
    {
        "level": 2,
        "name": "watchify-middleware:1.8.2"
    },
    {
        "level": 3,
        "name": "debounce:1.2.1"
    },
    {
        "level": 3,
        "name": "watchify:3.11.1"
    },
    {
        "level": 4,
        "name": "outpipe:1.1.1"
    },
    {
        "level": 4,
        "name": "anymatch:2.0.0"
    },
    {
        "level": 4,
        "name": "browserify:16.5.2"
    },
    {
        "level": 4,
        "name": "mkdirp-classic:0.5.3"
    },
    {
        "level": 5,
        "name": "browser-resolve:2.0.0"
    },
    {
        "level": 3,
        "name": "browserify-zlib:0.2.0"
    },
    {
        "level": 4,
        "name": "pako:1.0.11"
    },
    {
        "level": 5,
        "name": "buffer:5.2.1"
    },
    {
        "level": 5,
        "name": "domain-browser:1.2.0"
    },
    {
        "level": 5,
        "name": "events:2.1.0"
    },
    {
        "level": 3,
        "name": "https-browserify:1.0.0"
    },
    {
        "level": 5,
        "name": "module-deps:6.2.3"
    },
    {
        "level": 6,
        "name": "detective:5.2.0"
    },
    {
        "level": 3,
        "name": "os-browserify:0.3.0"
    },
    {
        "level": 5,
        "name": "stream-http:3.2.0"
    },
    {
        "level": 3,
        "name": "vm-browserify:1.1.2"
    },
    {
        "level": 4,
        "name": "chokidar:2.1.8"
    },
    {
        "level": 5,
        "name": "upath:1.2.0"
    },
    {
        "level": 4,
        "name": "normalize-path:3.0.0"
    },
    {
        "level": 5,
        "name": "glob-parent:3.1.0"
    },
    {
        "level": 6,
        "name": "path-dirname:1.0.2"
    },
    {
        "level": 6,
        "name": "is-glob:3.1.0"
    },
    {
        "level": 5,
        "name": "is-extglob:2.1.1"
    },
    {
        "level": 4,
        "name": "is-glob:4.0.1"
    },
    {
        "level": 1,
        "name": "chai-shallow-deep-equal:1.4.6"
    },
    {
        "level": 1,
        "name": "cypress:4.12.1"
    },
    {
        "level": 2,
        "name": "@cypress/listr-verbose-renderer:0.4.1"
    },
    {
        "level": 2,
        "name": "chalk:1.1.3"
    },
    {
        "level": 3,
        "name": "ansi-styles:2.2.1"
    },
    {
        "level": 3,
        "name": "has-ansi:2.0.0"
    },
    {
        "level": 3,
        "name": "supports-color:2.0.0"
    },
    {
        "level": 3,
        "name": "cli-cursor:1.0.2"
    },
    {
        "level": 4,
        "name": "restore-cursor:1.0.1"
    },
    {
        "level": 5,
        "name": "exit-hook:1.1.1"
    },
    {
        "level": 5,
        "name": "onetime:1.1.0"
    },
    {
        "level": 3,
        "name": "date-fns:1.30.1"
    },
    {
        "level": 3,
        "name": "figures:1.7.0"
    },
    {
        "level": 2,
        "name": "@cypress/request:2.88.5"
    },
    {
        "level": 3,
        "name": "qs:6.5.2"
    },
    {
        "level": 3,
        "name": "aws-sign2:0.7.0"
    },
    {
        "level": 3,
        "name": "aws4:1.11.0"
    },
    {
        "level": 3,
        "name": "caseless:0.12.0"
    },
    {
        "level": 3,
        "name": "combined-stream:1.0.8"
    },
    {
        "level": 4,
        "name": "delayed-stream:1.0.0"
    },
    {
        "level": 3,
        "name": "extend:3.0.2"
    },
    {
        "level": 3,
        "name": "forever-agent:0.6.1"
    },
    {
        "level": 3,
        "name": "form-data:2.3.3"
    },
    {
        "level": 4,
        "name": "asynckit:0.4.0"
    },
    {
        "level": 3,
        "name": "mime-types:2.1.30"
    },
    {
        "level": 3,
        "name": "har-validator:5.1.5"
    },
    {
        "level": 4,
        "name": "ajv:6.12.6"
    },
    {
        "level": 5,
        "name": "fast-deep-equal:3.1.3"
    },
    {
        "level": 5,
        "name": "fast-json-stable-stringify:2.1.0"
    },
    {
        "level": 5,
        "name": "json-schema-traverse:0.4.1"
    },
    {
        "level": 5,
        "name": "uri-js:4.4.1"
    },
    {
        "level": 4,
        "name": "punycode:2.1.1"
    },
    {
        "level": 4,
        "name": "har-schema:2.0.0"
    },
    {
        "level": 3,
        "name": "http-signature:1.2.0"
    },
    {
        "level": 4,
        "name": "assert-plus:1.0.0"
    },
    {
        "level": 4,
        "name": "jsprim:1.4.1"
    },
    {
        "level": 5,
        "name": "extsprintf:1.3.0"
    },
    {
        "level": 5,
        "name": "json-schema:0.2.3"
    },
    {
        "level": 5,
        "name": "verror:1.10.0"
    },
    {
        "level": 4,
        "name": "sshpk:1.16.1"
    },
    {
        "level": 5,
        "name": "asn1:0.2.4"
    },
    {
        "level": 5,
        "name": "bcrypt-pbkdf:1.0.2"
    },
    {
        "level": 5,
        "name": "tweetnacl:0.14.5"
    },
    {
        "level": 5,
        "name": "dashdash:1.14.1"
    },
    {
        "level": 5,
        "name": "ecc-jsbn:0.1.2"
    },
    {
        "level": 5,
        "name": "jsbn:0.1.1"
    },
    {
        "level": 5,
        "name": "getpass:0.1.7"
    },
    {
        "level": 3,
        "name": "is-typedarray:1.0.0"
    },
    {
        "level": 3,
        "name": "isstream:0.1.2"
    },
    {
        "level": 4,
        "name": "mime-db:1.47.0"
    },
    {
        "level": 3,
        "name": "oauth-sign:0.9.0"
    },
    {
        "level": 3,
        "name": "performance-now:2.1.0"
    },
    {
        "level": 3,
        "name": "tough-cookie:2.5.0"
    },
    {
        "level": 4,
        "name": "psl:1.8.0"
    },
    {
        "level": 3,
        "name": "tunnel-agent:0.6.0"
    },
    {
        "level": 3,
        "name": "uuid:3.4.0"
    },
    {
        "level": 2,
        "name": "@cypress/xvfb:1.2.4"
    },
    {
        "level": 3,
        "name": "debug:3.2.7"
    },
    {
        "level": 3,
        "name": "ms:2.1.3"
    },
    {
        "level": 3,
        "name": "lodash.once:4.1.1"
    },
    {
        "level": 2,
        "name": "@types/sinonjs__fake-timers:6.0.2"
    },
    {
        "level": 2,
        "name": "@types/sizzle:2.3.3"
    },
    {
        "level": 2,
        "name": "arch:2.2.0"
    },
    {
        "level": 2,
        "name": "bluebird:3.7.2"
    },
    {
        "level": 2,
        "name": "cachedir:2.3.0"
    },
    {
        "level": 2,
        "name": "check-more-types:2.24.0"
    },
    {
        "level": 2,
        "name": "cli-table3:0.5.1"
    },
    {
        "level": 3,
        "name": "string-width:2.1.1"
    },
    {
        "level": 4,
        "name": "is-fullwidth-code-point:2.0.0"
    },
    {
        "level": 2,
        "name": "strip-ansi:4.0.0"
    },
    {
        "level": 3,
        "name": "ansi-regex:3.0.0"
    },
    {
        "level": 2,
        "name": "colors:1.4.0"
    },
    {
        "level": 2,
        "name": "common-tags:1.8.0"
    },
    {
        "level": 2,
        "name": "chalk:2.4.2"
    },
    {
        "level": 3,
        "name": "ansi-styles:3.2.1"
    },
    {
        "level": 4,
        "name": "color-convert:1.9.3"
    },
    {
        "level": 5,
        "name": "color-name:1.1.3"
    },
    {
        "level": 3,
        "name": "supports-color:5.5.0"
    },
    {
        "level": 4,
        "name": "has-flag:3.0.0"
    },
    {
        "level": 2,
        "name": "commander:4.1.1"
    },
    {
        "level": 2,
        "name": "debug:4.3.1"
    },
    {
        "level": 3,
        "name": "ms:2.1.2"
    },
    {
        "level": 2,
        "name": "lodash:4.17.21"
    },
    {
        "level": 2,
        "name": "supports-color:7.2.0"
    },
    {
        "level": 3,
        "name": "has-flag:4.0.0"
    },
    {
        "level": 2,
        "name": "eventemitter2:6.4.4"
    },
    {
        "level": 2,
        "name": "execa:1.0.0"
    },
    {
        "level": 3,
        "name": "cross-spawn:6.0.5"
    },
    {
        "level": 4,
        "name": "nice-try:1.0.5"
    },
    {
        "level": 4,
        "name": "path-key:2.0.1"
    },
    {
        "level": 4,
        "name": "semver:5.7.1"
    },
    {
        "level": 4,
        "name": "shebang-command:1.2.0"
    },
    {
        "level": 5,
        "name": "shebang-regex:1.0.0"
    },
    {
        "level": 3,
        "name": "get-stream:4.1.0"
    },
    {
        "level": 4,
        "name": "pump:3.0.0"
    },
    {
        "level": 5,
        "name": "end-of-stream:1.4.4"
    },
    {
        "level": 6,
        "name": "once:1.4.0"
    },
    {
        "level": 3,
        "name": "is-stream:1.1.0"
    },
    {
        "level": 3,
        "name": "npm-run-path:2.0.2"
    },
    {
        "level": 3,
        "name": "p-finally:1.0.0"
    },
    {
        "level": 3,
        "name": "signal-exit:3.0.3"
    },
    {
        "level": 3,
        "name": "strip-eof:1.0.0"
    },
    {
        "level": 2,
        "name": "executable:4.1.1"
    },
    {
        "level": 3,
        "name": "pify:2.3.0"
    },
    {
        "level": 2,
        "name": "extract-zip:1.7.0"
    },
    {
        "level": 2,
        "name": "mkdirp:0.5.5"
    },
    {
        "level": 2,
        "name": "yauzl:2.10.0"
    },
    {
        "level": 2,
        "name": "fs-extra:8.1.0"
    },
    {
        "level": 3,
        "name": "jsonfile:4.0.0"
    },
    {
        "level": 3,
        "name": "universalify:0.1.2"
    },
    {
        "level": 2,
        "name": "getos:3.2.1"
    },
    {
        "level": 3,
        "name": "async:3.2.0"
    },
    {
        "level": 2,
        "name": "is-ci:2.0.0"
    },
    {
        "level": 3,
        "name": "ci-info:2.0.0"
    },
    {
        "level": 2,
        "name": "is-installed-globally:0.3.2"
    },
    {
        "level": 3,
        "name": "global-dirs:2.1.0"
    },
    {
        "level": 4,
        "name": "ini:1.3.7"
    },
    {
        "level": 3,
        "name": "is-path-inside:3.0.3"
    },
    {
        "level": 2,
        "name": "lazy-ass:1.6.0"
    },
    {
        "level": 2,
        "name": "listr:0.14.3"
    },
    {
        "level": 3,
        "name": "@samverschueren/stream-to-observable:0.3.1"
    },
    {
        "level": 4,
        "name": "any-observable:0.3.0"
    },
    {
        "level": 3,
        "name": "is-observable:1.1.0"
    },
    {
        "level": 4,
        "name": "symbol-observable:1.2.0"
    },
    {
        "level": 3,
        "name": "is-promise:2.2.2"
    },
    {
        "level": 3,
        "name": "listr-silent-renderer:1.1.1"
    },
    {
        "level": 3,
        "name": "listr-update-renderer:0.5.0"
    },
    {
        "level": 4,
        "name": "cli-truncate:0.2.1"
    },
    {
        "level": 4,
        "name": "slice-ansi:0.0.4"
    },
    {
        "level": 3,
        "name": "string-width:1.0.2"
    },
    {
        "level": 4,
        "name": "elegant-spinner:1.0.1"
    },
    {
        "level": 4,
        "name": "indent-string:3.2.0"
    },
    {
        "level": 4,
        "name": "log-symbols:1.0.2"
    },
    {
        "level": 4,
        "name": "log-update:2.3.0"
    },
    {
        "level": 5,
        "name": "ansi-escapes:3.2.0"
    },
    {
        "level": 4,
        "name": "cli-cursor:2.1.0"
    },
    {
        "level": 5,
        "name": "restore-cursor:2.0.0"
    },
    {
        "level": 6,
        "name": "onetime:2.0.1"
    },
    {
        "level": 7,
        "name": "mimic-fn:1.2.0"
    },
    {
        "level": 5,
        "name": "wrap-ansi:3.0.1"
    },
    {
        "level": 3,
        "name": "listr-verbose-renderer:0.5.0"
    },
    {
        "level": 4,
        "name": "figures:2.0.0"
    },
    {
        "level": 3,
        "name": "p-map:2.1.0"
    },
    {
        "level": 3,
        "name": "rxjs:6.6.7"
    },
    {
        "level": 4,
        "name": "tslib:1.14.1"
    },
    {
        "level": 2,
        "name": "log-symbols:3.0.0"
    },
    {
        "level": 2,
        "name": "moment:2.29.1"
    },
    {
        "level": 2,
        "name": "ospath:1.2.2"
    },
    {
        "level": 2,
        "name": "pretty-bytes:5.6.0"
    },
    {
        "level": 2,
        "name": "ramda:0.26.1"
    },
    {
        "level": 2,
        "name": "request-progress:3.0.0"
    },
    {
        "level": 3,
        "name": "throttleit:1.0.0"
    },
    {
        "level": 2,
        "name": "tmp:0.1.0"
    },
    {
        "level": 2,
        "name": "rimraf:2.7.1"
    },
    {
        "level": 2,
        "name": "untildify:4.0.0"
    },
    {
        "level": 3,
        "name": "buffer-crc32:0.2.13"
    },
    {
        "level": 3,
        "name": "fd-slicer:1.1.0"
    },
    {
        "level": 4,
        "name": "pend:1.2.0"
    },
    {
        "level": 1,
        "name": "cypress-movie:3.0.6"
    },
    {
        "level": 2,
        "name": "@ffmpeg-installer/ffmpeg:1.0.20"
    },
    {
        "level": 3,
        "name": "@ffmpeg-installer/darwin-x64:4.1.0"
    },
    {
        "level": 3,
        "name": "@ffmpeg-installer/linux-arm:4.1.3"
    },
    {
        "level": 3,
        "name": "@ffmpeg-installer/linux-arm64:4.1.4"
    },
    {
        "level": 3,
        "name": "@ffmpeg-installer/linux-ia32:4.1.0"
    },
    {
        "level": 3,
        "name": "@ffmpeg-installer/linux-x64:4.1.0"
    },
    {
        "level": 3,
        "name": "@ffmpeg-installer/win32-ia32:4.1.0"
    },
    {
        "level": 3,
        "name": "@ffmpeg-installer/win32-x64:4.1.0"
    },
    {
        "level": 2,
        "name": "arg:4.1.3"
    },
    {
        "level": 2,
        "name": "chrome-remote-interface:0.28.2"
    },
    {
        "level": 3,
        "name": "commander:2.11.0"
    },
    {
        "level": 3,
        "name": "ws:7.4.5"
    },
    {
        "level": 2,
        "name": "debug:4.1.1"
    },
    {
        "level": 2,
        "name": "execa:4.0.2"
    },
    {
        "level": 3,
        "name": "cross-spawn:7.0.3"
    },
    {
        "level": 4,
        "name": "path-key:3.1.1"
    },
    {
        "level": 4,
        "name": "shebang-command:2.0.0"
    },
    {
        "level": 5,
        "name": "shebang-regex:3.0.0"
    },
    {
        "level": 4,
        "name": "which:2.0.2"
    },
    {
        "level": 3,
        "name": "isexe:2.0.0"
    },
    {
        "level": 3,
        "name": "get-stream:5.2.0"
    },
    {
        "level": 3,
        "name": "is-stream:2.0.0"
    },
    {
        "level": 3,
        "name": "npm-run-path:4.0.1"
    },
    {
        "level": 3,
        "name": "onetime:5.1.2"
    },
    {
        "level": 4,
        "name": "mimic-fn:2.1.0"
    },
    {
        "level": 3,
        "name": "human-signals:1.1.1"
    },
    {
        "level": 3,
        "name": "merge-stream:2.0.0"
    },
    {
        "level": 3,
        "name": "strip-final-newline:2.0.0"
    },
    {
        "level": 2,
        "name": "lodash:4.17.19"
    },
    {
        "level": 2,
        "name": "sharp:0.25.4"
    },
    {
        "level": 3,
        "name": "color:3.1.3"
    },
    {
        "level": 4,
        "name": "color-string:1.5.5"
    },
    {
        "level": 5,
        "name": "simple-swizzle:0.2.2"
    },
    {
        "level": 6,
        "name": "is-arrayish:0.3.2"
    },
    {
        "level": 3,
        "name": "detect-libc:1.0.3"
    },
    {
        "level": 3,
        "name": "node-addon-api:3.2.0"
    },
    {
        "level": 3,
        "name": "npmlog:4.1.2"
    },
    {
        "level": 4,
        "name": "are-we-there-yet:1.1.5"
    },
    {
        "level": 5,
        "name": "delegates:1.0.0"
    },
    {
        "level": 4,
        "name": "console-control-strings:1.1.0"
    },
    {
        "level": 4,
        "name": "gauge:2.7.4"
    },
    {
        "level": 5,
        "name": "aproba:1.2.0"
    },
    {
        "level": 5,
        "name": "has-unicode:2.0.1"
    },
    {
        "level": 5,
        "name": "wide-align:1.1.3"
    },
    {
        "level": 3,
        "name": "set-blocking:2.0.0"
    },
    {
        "level": 3,
        "name": "prebuild-install:5.3.6"
    },
    {
        "level": 4,
        "name": "expand-template:2.0.3"
    },
    {
        "level": 4,
        "name": "github-from-package:0.0.0"
    },
    {
        "level": 4,
        "name": "napi-build-utils:1.0.2"
    },
    {
        "level": 4,
        "name": "node-abi:2.26.0"
    },
    {
        "level": 4,
        "name": "noop-logger:0.1.1"
    },
    {
        "level": 4,
        "name": "simple-get:3.1.0"
    },
    {
        "level": 5,
        "name": "decompress-response:4.2.1"
    },
    {
        "level": 6,
        "name": "mimic-response:2.1.0"
    },
    {
        "level": 4,
        "name": "rc:1.2.8"
    },
    {
        "level": 5,
        "name": "deep-extend:0.6.0"
    },
    {
        "level": 5,
        "name": "strip-json-comments:2.0.1"
    },
    {
        "level": 4,
        "name": "tar-fs:2.1.1"
    },
    {
        "level": 5,
        "name": "chownr:1.1.4"
    },
    {
        "level": 5,
        "name": "tar-stream:2.2.0"
    },
    {
        "level": 6,
        "name": "bl:4.1.0"
    },
    {
        "level": 7,
        "name": "buffer:5.7.1"
    },
    {
        "level": 6,
        "name": "fs-constants:1.0.0"
    },
    {
        "level": 4,
        "name": "which-pm-runs:1.0.0"
    },
    {
        "level": 3,
        "name": "semver:7.3.5"
    },
    {
        "level": 4,
        "name": "lru-cache:6.0.0"
    },
    {
        "level": 4,
        "name": "yallist:4.0.0"
    },
    {
        "level": 3,
        "name": "simple-get:4.0.0"
    },
    {
        "level": 4,
        "name": "decompress-response:6.0.0"
    },
    {
        "level": 5,
        "name": "mimic-response:3.1.0"
    },
    {
        "level": 3,
        "name": "tar:6.1.0"
    },
    {
        "level": 4,
        "name": "fs-minipass:2.1.0"
    },
    {
        "level": 4,
        "name": "minipass:3.1.3"
    },
    {
        "level": 4,
        "name": "minizlib:2.1.2"
    },
    {
        "level": 4,
        "name": "chownr:2.0.0"
    },
    {
        "level": 4,
        "name": "mkdirp:1.0.4"
    },
    {
        "level": 2,
        "name": "tiny-toast:1.2.0"
    },
    {
        "level": 1,
        "name": "envify:4.1.0"
    },
    {
        "level": 2,
        "name": "esprima:4.0.1"
    },
    {
        "level": 1,
        "name": "ghpages:0.0.8"
    },
    {
        "level": 2,
        "name": "gh-pages:0.11.0"
    },
    {
        "level": 3,
        "name": "async:1.5.2"
    },
    {
        "level": 2,
        "name": "commander:2.9.0"
    },
    {
        "level": 3,
        "name": "graceful-readlink:1.0.1"
    },
    {
        "level": 3,
        "name": "graceful-fs:4.1.2"
    },
    {
        "level": 3,
        "name": "globby:4.1.0"
    },
    {
        "level": 4,
        "name": "array-union:1.0.2"
    },
    {
        "level": 5,
        "name": "array-uniq:1.0.3"
    },
    {
        "level": 4,
        "name": "arrify:1.0.1"
    },
    {
        "level": 4,
        "name": "glob:6.0.4"
    },
    {
        "level": 4,
        "name": "pinkie-promise:2.0.1"
    },
    {
        "level": 5,
        "name": "pinkie:2.0.4"
    },
    {
        "level": 3,
        "name": "q:1.4.1"
    },
    {
        "level": 3,
        "name": "q-io:1.13.2"
    },
    {
        "level": 4,
        "name": "collections:0.2.2"
    },
    {
        "level": 5,
        "name": "weak-map:1.0.0"
    },
    {
        "level": 4,
        "name": "mimeparse:0.1.4"
    },
    {
        "level": 4,
        "name": "qs:1.2.2"
    },
    {
        "level": 4,
        "name": "url2:0.0.0"
    },
    {
        "level": 3,
        "name": "wrench:1.5.8"
    },
    {
        "level": 2,
        "name": "gitconfiglocal:1.0.0"
    },
    {
        "level": 3,
        "name": "camelcase-keys:2.1.0"
    },
    {
        "level": 4,
        "name": "camelcase:2.1.1"
    },
    {
        "level": 3,
        "name": "map-obj:1.0.1"
    },
    {
        "level": 3,
        "name": "decamelize:1.2.0"
    },
    {
        "level": 3,
        "name": "loud-rejection:1.6.0"
    },
    {
        "level": 4,
        "name": "currently-unhandled:0.4.1"
    },
    {
        "level": 5,
        "name": "array-find-index:1.0.2"
    },
    {
        "level": 3,
        "name": "normalize-package-data:2.5.0"
    },
    {
        "level": 4,
        "name": "hosted-git-info:2.8.9"
    },
    {
        "level": 4,
        "name": "validate-npm-package-license:3.0.4"
    },
    {
        "level": 5,
        "name": "spdx-correct:3.1.1"
    },
    {
        "level": 5,
        "name": "spdx-expression-parse:3.0.1"
    },
    {
        "level": 6,
        "name": "spdx-license-ids:3.0.9"
    },
    {
        "level": 6,
        "name": "spdx-exceptions:2.3.0"
    },
    {
        "level": 3,
        "name": "read-pkg-up:1.0.1"
    },
    {
        "level": 4,
        "name": "find-up:1.1.2"
    },
    {
        "level": 5,
        "name": "path-exists:2.1.0"
    },
    {
        "level": 4,
        "name": "read-pkg:1.1.0"
    },
    {
        "level": 5,
        "name": "load-json-file:1.1.0"
    },
    {
        "level": 6,
        "name": "parse-json:2.2.0"
    },
    {
        "level": 7,
        "name": "error-ex:1.3.2"
    },
    {
        "level": 8,
        "name": "is-arrayish:0.2.1"
    },
    {
        "level": 6,
        "name": "strip-bom:2.0.0"
    },
    {
        "level": 7,
        "name": "is-utf8:0.2.1"
    },
    {
        "level": 5,
        "name": "path-type:1.1.0"
    },
    {
        "level": 3,
        "name": "redent:1.0.0"
    },
    {
        "level": 4,
        "name": "indent-string:2.1.0"
    },
    {
        "level": 5,
        "name": "repeating:2.0.1"
    },
    {
        "level": 4,
        "name": "strip-indent:1.0.1"
    },
    {
        "level": 3,
        "name": "get-stdin:4.0.1"
    },
    {
        "level": 3,
        "name": "trim-newlines:1.0.0"
    },
    {
        "level": 2,
        "name": "parse-github-url:0.2.1"
    },
    {
        "level": 1,
        "name": "karma:1.7.1"
    },
    {
        "level": 2,
        "name": "combine-lists:1.0.1"
    },
    {
        "level": 2,
        "name": "connect:3.7.0"
    },
    {
        "level": 3,
        "name": "finalhandler:1.1.2"
    },
    {
        "level": 3,
        "name": "utils-merge:1.0.1"
    },
    {
        "level": 2,
        "name": "core-js:2.6.12"
    },
    {
        "level": 2,
        "name": "di:0.0.1"
    },
    {
        "level": 2,
        "name": "dom-serialize:2.2.1"
    },
    {
        "level": 3,
        "name": "custom-event:1.0.1"
    },
    {
        "level": 3,
        "name": "ent:2.2.0"
    },
    {
        "level": 3,
        "name": "void-elements:2.0.1"
    },
    {
        "level": 2,
        "name": "expand-braces:0.1.2"
    },
    {
        "level": 3,
        "name": "array-slice:0.2.3"
    },
    {
        "level": 3,
        "name": "braces:0.1.5"
    },
    {
        "level": 4,
        "name": "expand-range:0.1.1"
    },
    {
        "level": 5,
        "name": "is-number:0.1.1"
    },
    {
        "level": 5,
        "name": "repeat-string:0.2.2"
    },
    {
        "level": 2,
        "name": "http-proxy:1.18.1"
    },
    {
        "level": 3,
        "name": "eventemitter3:4.0.7"
    },
    {
        "level": 3,
        "name": "follow-redirects:1.14.1"
    },
    {
        "level": 3,
        "name": "requires-port:1.0.0"
    },
    {
        "level": 2,
        "name": "isbinaryfile:3.0.3"
    },
    {
        "level": 3,
        "name": "buffer-alloc:1.2.0"
    },
    {
        "level": 4,
        "name": "buffer-alloc-unsafe:1.1.0"
    },
    {
        "level": 4,
        "name": "buffer-fill:1.0.0"
    },
    {
        "level": 2,
        "name": "body-parser:1.19.0"
    },
    {
        "level": 3,
        "name": "bytes:3.1.0"
    },
    {
        "level": 3,
        "name": "http-errors:1.7.2"
    },
    {
        "level": 3,
        "name": "iconv-lite:0.4.24"
    },
    {
        "level": 3,
        "name": "qs:6.7.0"
    },
    {
        "level": 3,
        "name": "raw-body:2.4.0"
    },
    {
        "level": 4,
        "name": "ee-first:1.1.1"
    },
    {
        "level": 4,
        "name": "media-typer:0.3.0"
    },
    {
        "level": 2,
        "name": "lodash:3.10.1"
    },
    {
        "level": 2,
        "name": "tmp:0.0.31"
    },
    {
        "level": 3,
        "name": "os-tmpdir:1.0.2"
    },
    {
        "level": 2,
        "name": "log4js:0.6.38"
    },
    {
        "level": 3,
        "name": "semver:4.3.6"
    },
    {
        "level": 2,
        "name": "optimist:0.6.1"
    },
    {
        "level": 3,
        "name": "minimist:0.0.10"
    },
    {
        "level": 3,
        "name": "wordwrap:0.0.3"
    },
    {
        "level": 2,
        "name": "qjobs:1.2.0"
    },
    {
        "level": 2,
        "name": "socket.io:1.7.3"
    },
    {
        "level": 3,
        "name": "engine.io:1.8.3"
    },
    {
        "level": 4,
        "name": "accepts:1.3.3"
    },
    {
        "level": 5,
        "name": "negotiator:0.6.1"
    },
    {
        "level": 4,
        "name": "base64id:1.0.0"
    },
    {
        "level": 4,
        "name": "cookie:0.3.1"
    },
    {
        "level": 4,
        "name": "engine.io-parser:1.3.2"
    },
    {
        "level": 5,
        "name": "after:0.8.2"
    },
    {
        "level": 5,
        "name": "arraybuffer.slice:0.0.6"
    },
    {
        "level": 5,
        "name": "base64-arraybuffer:0.1.5"
    },
    {
        "level": 5,
        "name": "blob:0.0.4"
    },
    {
        "level": 3,
        "name": "has-binary:0.1.7"
    },
    {
        "level": 5,
        "name": "wtf-8:1.0.0"
    },
    {
        "level": 3,
        "name": "debug:2.3.3"
    },
    {
        "level": 4,
        "name": "ms:0.7.2"
    },
    {
        "level": 4,
        "name": "ws:1.1.2"
    },
    {
        "level": 5,
        "name": "options:0.0.6"
    },
    {
        "level": 5,
        "name": "ultron:1.0.2"
    },
    {
        "level": 3,
        "name": "socket.io-adapter:0.5.0"
    },
    {
        "level": 3,
        "name": "socket.io-parser:2.3.1"
    },
    {
        "level": 3,
        "name": "socket.io-client:1.7.3"
    },
    {
        "level": 4,
        "name": "backo2:1.0.2"
    },
    {
        "level": 4,
        "name": "component-bind:1.0.0"
    },
    {
        "level": 4,
        "name": "engine.io-client:1.8.3"
    },
    {
        "level": 5,
        "name": "component-inherit:0.0.3"
    },
    {
        "level": 4,
        "name": "component-emitter:1.2.1"
    },
    {
        "level": 5,
        "name": "has-cors:1.1.0"
    },
    {
        "level": 5,
        "name": "parsejson:0.0.3"
    },
    {
        "level": 5,
        "name": "better-assert:1.0.2"
    },
    {
        "level": 5,
        "name": "parseqs:0.0.5"
    },
    {
        "level": 4,
        "name": "parseuri:0.0.5"
    },
    {
        "level": 5,
        "name": "xmlhttprequest-ssl:1.5.3"
    },
    {
        "level": 5,
        "name": "yeast:0.1.2"
    },
    {
        "level": 4,
        "name": "object-component:0.0.3"
    },
    {
        "level": 6,
        "name": "callsite:1.0.0"
    },
    {
        "level": 4,
        "name": "to-array:0.1.4"
    },
    {
        "level": 2,
        "name": "json3:3.3.2"
    },
    {
        "level": 4,
        "name": "component-emitter:1.1.2"
    },
    {
        "level": 3,
        "name": "object-assign:4.1.0"
    },
    {
        "level": 2,
        "name": "useragent:2.3.0"
    },
    {
        "level": 3,
        "name": "lru-cache:4.1.5"
    },
    {
        "level": 4,
        "name": "pseudomap:1.0.2"
    },
    {
        "level": 4,
        "name": "yallist:2.1.2"
    },
    {
        "level": 3,
        "name": "tmp:0.0.33"
    },
    {
        "level": 1,
        "name": "karma-browserify:5.3.0"
    },
    {
        "level": 2,
        "name": "hat:0.0.3"
    },
    {
        "level": 2,
        "name": "js-string-escape:1.0.1"
    },
    {
        "level": 2,
        "name": "os-shim:0.1.3"
    },
    {
        "level": 1,
        "name": "karma-chai-shallow-deep-equal:0.0.4"
    },
    {
        "level": 1,
        "name": "karma-chrome-launcher:2.2.0"
    },
    {
        "level": 2,
        "name": "fs-access:1.0.1"
    },
    {
        "level": 3,
        "name": "null-check:1.0.0"
    },
    {
        "level": 1,
        "name": "karma-coverage:1.1.2"
    },
    {
        "level": 2,
        "name": "dateformat:1.0.12"
    },
    {
        "level": 2,
        "name": "istanbul:0.4.5"
    },
    {
        "level": 3,
        "name": "abbrev:1.0.9"
    },
    {
        "level": 3,
        "name": "escodegen:1.8.1"
    },
    {
        "level": 3,
        "name": "esprima:2.7.3"
    },
    {
        "level": 4,
        "name": "estraverse:1.9.3"
    },
    {
        "level": 4,
        "name": "source-map:0.2.0"
    },
    {
        "level": 3,
        "name": "esutils:2.0.3"
    },
    {
        "level": 3,
        "name": "optionator:0.8.3"
    },
    {
        "level": 3,
        "name": "handlebars:4.7.7"
    },
    {
        "level": 2,
        "name": "source-map:0.6.1"
    },
    {
        "level": 4,
        "name": "uglify-js:3.13.7"
    },
    {
        "level": 3,
        "name": "wordwrap:1.0.0"
    },
    {
        "level": 3,
        "name": "neo-async:2.6.2"
    },
    {
        "level": 3,
        "name": "glob:5.0.15"
    },
    {
        "level": 2,
        "name": "supports-color:3.2.3"
    },
    {
        "level": 3,
        "name": "has-flag:1.0.0"
    },
    {
        "level": 3,
        "name": "js-yaml:3.14.1"
    },
    {
        "level": 4,
        "name": "argparse:1.0.10"
    },
    {
        "level": 5,
        "name": "sprintf-js:1.0.3"
    },
    {
        "level": 3,
        "name": "nopt:3.0.6"
    },
    {
        "level": 1,
        "name": "karma-env-preprocessor:0.1.1"
    },
    {
        "level": 1,
        "name": "karma-firefox-launcher:1.3.0"
    },
    {
        "level": 2,
        "name": "is-wsl:2.2.0"
    },
    {
        "level": 3,
        "name": "is-docker:2.2.1"
    },
    {
        "level": 1,
        "name": "karma-mocha:1.3.0"
    },
    {
        "level": 2,
        "name": "minimist:1.2.0"
    },
    {
        "level": 1,
        "name": "karma-mocha-reporter:2.2.5"
    },
    {
        "level": 2,
        "name": "log-symbols:2.2.0"
    },
    {
        "level": 1,
        "name": "karma-sinon-chai:1.2.4"
    },
    {
        "level": 2,
        "name": "lolex:1.6.0"
    },
    {
        "level": 1,
        "name": "mocha:3.5.3"
    },
    {
        "level": 2,
        "name": "browser-stdout:1.3.0"
    },
    {
        "level": 2,
        "name": "diff:3.2.0"
    },
    {
        "level": 2,
        "name": "growl:1.9.2"
    },
    {
        "level": 2,
        "name": "he:1.1.1"
    },
    {
        "level": 2,
        "name": "lodash.create:3.1.1"
    },
    {
        "level": 3,
        "name": "lodash._baseassign:3.2.0"
    },
    {
        "level": 4,
        "name": "lodash._basecopy:3.0.1"
    },
    {
        "level": 4,
        "name": "lodash.keys:3.1.2"
    },
    {
        "level": 5,
        "name": "lodash._getnative:3.9.1"
    },
    {
        "level": 5,
        "name": "lodash.isarguments:3.1.0"
    },
    {
        "level": 5,
        "name": "lodash.isarray:3.0.4"
    },
    {
        "level": 3,
        "name": "lodash._basecreate:3.0.3"
    },
    {
        "level": 3,
        "name": "lodash._isiterateecall:3.0.9"
    },
    {
        "level": 2,
        "name": "debug:2.6.8"
    },
    {
        "level": 2,
        "name": "glob:7.1.1"
    },
    {
        "level": 2,
        "name": "mkdirp:0.5.1"
    },
    {
        "level": 3,
        "name": "minimist:0.0.8"
    },
    {
        "level": 2,
        "name": "supports-color:3.1.2"
    },
    {
        "level": 1,
        "name": "randomcolor:0.4.4"
    },
    {
        "level": 1,
        "name": "semistandard:8.0.0"
    },
    {
        "level": 2,
        "name": "eslint:2.13.1"
    },
    {
        "level": 3,
        "name": "doctrine:1.5.0"
    },
    {
        "level": 5,
        "name": "type:1.2.0"
    },
    {
        "level": 5,
        "name": "next-tick:1.0.0"
    },
    {
        "level": 4,
        "name": "es6-set:0.1.5"
    },
    {
        "level": 5,
        "name": "es6-symbol:3.1.1"
    },
    {
        "level": 4,
        "name": "event-emitter:0.3.5"
    },
    {
        "level": 5,
        "name": "ext:1.4.0"
    },
    {
        "level": 6,
        "name": "type:2.5.0"
    },
    {
        "level": 3,
        "name": "json-stable-stringify:1.0.1"
    },
    {
        "level": 3,
        "name": "shelljs:0.6.1"
    },
    {
        "level": 3,
        "name": "strip-json-comments:1.0.4"
    },
    {
        "level": 3,
        "name": "espree:3.5.4"
    },
    {
        "level": 4,
        "name": "acorn-jsx:3.0.1"
    },
    {
        "level": 5,
        "name": "acorn:3.3.0"
    },
    {
        "level": 3,
        "name": "file-entry-cache:1.3.1"
    },
    {
        "level": 4,
        "name": "flat-cache:1.3.4"
    },
    {
        "level": 5,
        "name": "circular-json:0.3.3"
    },
    {
        "level": 5,
        "name": "rimraf:2.6.3"
    },
    {
        "level": 5,
        "name": "write:0.2.1"
    },
    {
        "level": 3,
        "name": "globals:9.18.0"
    },
    {
        "level": 3,
        "name": "ignore:3.3.10"
    },
    {
        "level": 3,
        "name": "imurmurhash:0.1.4"
    },
    {
        "level": 3,
        "name": "inquirer:0.12.0"
    },
    {
        "level": 4,
        "name": "cli-width:2.2.1"
    },
    {
        "level": 4,
        "name": "ansi-escapes:1.4.0"
    },
    {
        "level": 4,
        "name": "readline2:1.0.1"
    },
    {
        "level": 4,
        "name": "code-point-at:1.1.0"
    },
    {
        "level": 4,
        "name": "is-fullwidth-code-point:1.0.0"
    },
    {
        "level": 5,
        "name": "mute-stream:0.0.5"
    },
    {
        "level": 4,
        "name": "run-async:0.1.0"
    },
    {
        "level": 4,
        "name": "rx-lite:3.1.2"
    },
    {
        "level": 3,
        "name": "is-my-json-valid:2.20.5"
    },
    {
        "level": 4,
        "name": "generate-function:2.3.1"
    },
    {
        "level": 5,
        "name": "is-property:1.0.2"
    },
    {
        "level": 4,
        "name": "generate-object-property:1.2.0"
    },
    {
        "level": 4,
        "name": "is-my-ip-valid:1.0.0"
    },
    {
        "level": 4,
        "name": "jsonpointer:4.1.0"
    },
    {
        "level": 3,
        "name": "is-resolvable:1.1.0"
    },
    {
        "level": 3,
        "name": "levn:0.3.0"
    },
    {
        "level": 4,
        "name": "prelude-ls:1.1.2"
    },
    {
        "level": 4,
        "name": "type-check:0.3.2"
    },
    {
        "level": 4,
        "name": "deep-is:0.1.3"
    },
    {
        "level": 4,
        "name": "fast-levenshtein:2.0.6"
    },
    {
        "level": 4,
        "name": "word-wrap:1.2.3"
    },
    {
        "level": 3,
        "name": "path-is-inside:1.0.2"
    },
    {
        "level": 3,
        "name": "pluralize:1.2.1"
    },
    {
        "level": 3,
        "name": "progress:1.1.8"
    },
    {
        "level": 3,
        "name": "require-uncached:1.0.3"
    },
    {
        "level": 4,
        "name": "caller-path:0.1.0"
    },
    {
        "level": 5,
        "name": "callsites:0.2.0"
    },
    {
        "level": 4,
        "name": "resolve-from:1.0.1"
    },
    {
        "level": 3,
        "name": "table:3.8.3"
    },
    {
        "level": 2,
        "name": "ajv-keywords:1.5.1"
    },
    {
        "level": 2,
        "name": "ajv:4.11.8"
    },
    {
        "level": 3,
        "name": "co:4.6.0"
    },
    {
        "level": 2,
        "name": "text-table:0.2.0"
    },
    {
        "level": 3,
        "name": "user-home:2.0.0"
    },
    {
        "level": 2,
        "name": "eslint-config-semistandard:6.0.2"
    },
    {
        "level": 2,
        "name": "eslint-config-standard:5.3.1"
    },
    {
        "level": 2,
        "name": "eslint-config-standard-jsx:1.2.0"
    },
    {
        "level": 2,
        "name": "eslint-plugin-promise:1.3.2"
    },
    {
        "level": 2,
        "name": "eslint-plugin-react:5.2.2"
    },
    {
        "level": 3,
        "name": "jsx-ast-utils:1.4.1"
    },
    {
        "level": 2,
        "name": "eslint-plugin-standard:1.3.3"
    },
    {
        "level": 2,
        "name": "semistandard-format:3.0.0"
    },
    {
        "level": 3,
        "name": "semi:4.0.5"
    },
    {
        "level": 4,
        "name": "findit:2.0.0"
    },
    {
        "level": 4,
        "name": "eslint:0.24.1"
    },
    {
        "level": 5,
        "name": "estraverse-fb:1.3.2"
    },
    {
        "level": 5,
        "name": "doctrine:0.6.4"
    },
    {
        "level": 6,
        "name": "esutils:1.1.6"
    },
    {
        "level": 5,
        "name": "espree:2.2.5"
    },
    {
        "level": 5,
        "name": "globals:8.18.0"
    },
    {
        "level": 5,
        "name": "inquirer:0.8.5"
    },
    {
        "level": 6,
        "name": "rx:2.5.3"
    },
    {
        "level": 6,
        "name": "cli-width:1.1.1"
    },
    {
        "level": 6,
        "name": "ansi-regex:1.1.1"
    },
    {
        "level": 6,
        "name": "readline2:0.1.1"
    },
    {
        "level": 7,
        "name": "mute-stream:0.0.4"
    },
    {
        "level": 7,
        "name": "strip-ansi:2.0.1"
    },
    {
        "level": 5,
        "name": "minimatch:2.0.10"
    },
    {
        "level": 5,
        "name": "object-assign:2.1.1"
    },
    {
        "level": 5,
        "name": "optionator:0.5.0"
    },
    {
        "level": 6,
        "name": "fast-levenshtein:1.0.7"
    },
    {
        "level": 6,
        "name": "levn:0.2.5"
    },
    {
        "level": 5,
        "name": "user-home:1.1.1"
    },
    {
        "level": 5,
        "name": "xml-escape:1.0.0"
    },
    {
        "level": 3,
        "name": "standard-format:2.2.4"
    },
    {
        "level": 3,
        "name": "deglob:1.1.2"
    },
    {
        "level": 4,
        "name": "esformatter:0.9.6"
    },
    {
        "level": 5,
        "name": "acorn-to-esprima:2.0.8"
    },
    {
        "level": 5,
        "name": "babel-traverse:6.26.0"
    },
    {
        "level": 6,
        "name": "babel-code-frame:6.26.0"
    },
    {
        "level": 7,
        "name": "js-tokens:3.0.2"
    },
    {
        "level": 6,
        "name": "babel-messages:6.23.0"
    },
    {
        "level": 6,
        "name": "babel-runtime:6.26.0"
    },
    {
        "level": 7,
        "name": "regenerator-runtime:0.11.1"
    },
    {
        "level": 6,
        "name": "babel-types:6.26.0"
    },
    {
        "level": 7,
        "name": "to-fast-properties:1.0.3"
    },
    {
        "level": 6,
        "name": "babylon:6.18.0"
    },
    {
        "level": 6,
        "name": "invariant:2.2.4"
    },
    {
        "level": 7,
        "name": "loose-envify:1.4.0"
    },
    {
        "level": 5,
        "name": "disparity:2.0.0"
    },
    {
        "level": 6,
        "name": "diff:1.4.0"
    },
    {
        "level": 5,
        "name": "esformatter-parser:1.0.0"
    },
    {
        "level": 5,
        "name": "rocambole:0.7.0"
    },
    {
        "level": 5,
        "name": "debug:0.7.4"
    },
    {
        "level": 5,
        "name": "strip-json-comments:0.1.3"
    },
    {
        "level": 5,
        "name": "mout:1.2.2"
    },
    {
        "level": 5,
        "name": "npm-run:2.0.0"
    },
    {
        "level": 6,
        "name": "npm-path:1.1.0"
    },
    {
        "level": 6,
        "name": "npm-which:2.0.0"
    },
    {
        "level": 6,
        "name": "serializerr:1.0.3"
    },
    {
        "level": 7,
        "name": "protochain:1.0.5"
    },
    {
        "level": 6,
        "name": "spawn-sync:1.0.15"
    },
    {
        "level": 6,
        "name": "sync-exec:0.5.0"
    },
    {
        "level": 5,
        "name": "rocambole-indent:2.0.4"
    },
    {
        "level": 6,
        "name": "mout:0.11.1"
    },
    {
        "level": 5,
        "name": "rocambole-token:1.2.1"
    },
    {
        "level": 5,
        "name": "rocambole-linebreak:1.0.2"
    },
    {
        "level": 5,
        "name": "rocambole-node:1.0.0"
    },
    {
        "level": 5,
        "name": "rocambole-whitespace:1.0.0"
    },
    {
        "level": 3,
        "name": "stdin:0.0.1"
    },
    {
        "level": 4,
        "name": "esformatter-eol-last:1.0.0"
    },
    {
        "level": 5,
        "name": "string.prototype.endswith:0.2.0"
    },
    {
        "level": 4,
        "name": "esformatter-jsx:7.4.1"
    },
    {
        "level": 5,
        "name": "esformatter-ignore:0.1.3"
    },
    {
        "level": 5,
        "name": "babylon:6.14.1"
    },
    {
        "level": 5,
        "name": "extend:3.0.0"
    },
    {
        "level": 5,
        "name": "js-beautify:1.6.4"
    },
    {
        "level": 6,
        "name": "config-chain:1.1.12"
    },
    {
        "level": 7,
        "name": "proto-list:1.2.4"
    },
    {
        "level": 6,
        "name": "editorconfig:0.13.3"
    },
    {
        "level": 7,
        "name": "commander:2.20.3"
    },
    {
        "level": 7,
        "name": "lru-cache:3.2.0"
    },
    {
        "level": 7,
        "name": "sigmund:1.0.1"
    },
    {
        "level": 4,
        "name": "esformatter-literal-notation:1.0.1"
    },
    {
        "level": 5,
        "name": "rocambole:0.3.6"
    },
    {
        "level": 6,
        "name": "esprima:1.0.4"
    },
    {
        "level": 4,
        "name": "esformatter-quotes:1.1.0"
    },
    {
        "level": 4,
        "name": "esformatter-remove-trailing-commas:1.0.1"
    },
    {
        "level": 4,
        "name": "esformatter-semicolon-first:1.2.0"
    },
    {
        "level": 4,
        "name": "esformatter-spaced-lined-comment:2.0.1"
    },
    {
        "level": 2,
        "name": "standard-engine:4.1.3"
    },
    {
        "level": 3,
        "name": "defaults:1.0.3"
    },
    {
        "level": 4,
        "name": "clone:1.0.4"
    },
    {
        "level": 3,
        "name": "find-root:1.1.0"
    },
    {
        "level": 3,
        "name": "pkg-config:1.1.1"
    },
    {
        "level": 4,
        "name": "run-parallel:1.2.0"
    },
    {
        "level": 5,
        "name": "queue-microtask:1.2.3"
    },
    {
        "level": 4,
        "name": "uniq:1.0.1"
    },
    {
        "level": 3,
        "name": "multiline:1.0.2"
    },
    {
        "level": 4,
        "name": "debug-log:1.0.1"
    },
    {
        "level": 3,
        "name": "get-stdin:5.0.1"
    },
    {
        "level": 1,
        "name": "shelljs:0.7.8"
    },
    {
        "level": 2,
        "name": "interpret:1.4.0"
    },
    {
        "level": 2,
        "name": "rechoir:0.6.2"
    },
    {
        "level": 1,
        "name": "shx:0.1.4"
    },
    {
        "level": 1,
        "name": "sinon:1.17.7"
    },
    {
        "level": 2,
        "name": "formatio:1.1.1"
    },
    {
        "level": 2,
        "name": "samsam:1.1.2"
    },
    {
        "level": 2,
        "name": "lolex:1.3.2"
    },
    {
        "level": 1,
        "name": "sinon-chai:2.14.0"
    },
    {
        "level": 1,
        "name": "snazzy:4.0.1"
    },
    {
        "level": 2,
        "name": "standard:7.1.2"
    },
    {
        "level": 3,
        "name": "eslint:2.10.2"
    },
    {
        "level": 4,
        "name": "espree:3.1.4"
    },
    {
        "level": 3,
        "name": "eslint-config-standard-jsx:1.2.1"
    },
    {
        "level": 2,
        "name": "standard-json:1.1.0"
    },
    {
        "level": 3,
        "name": "concat-stream:2.0.0"
    },
    {
        "level": 1,
        "name": "three:0.128.0"
    },
    {
        "level": 1,
        "name": "three-forcegraph:1.37.5"
    },
    {
        "level": 2,
        "name": "d3-array:2.12.1"
    },
    {
        "level": 3,
        "name": "internmap:1.0.1"
    },
    {
        "level": 2,
        "name": "d3-force-3d:2.3.2"
    },
    {
        "level": 3,
        "name": "d3-binarytree:0.2.0"
    },
    {
        "level": 3,
        "name": "d3-dispatch:2.0.0"
    },
    {
        "level": 3,
        "name": "d3-octree:0.2.0"
    },
    {
        "level": 3,
        "name": "d3-quadtree:2.0.0"
    },
    {
        "level": 3,
        "name": "d3-timer:2.0.0"
    },
    {
        "level": 2,
        "name": "d3-scale:3.3.0"
    },
    {
        "level": 3,
        "name": "d3-format:2.0.0"
    },
    {
        "level": 3,
        "name": "d3-interpolate:2.0.1"
    },
    {
        "level": 3,
        "name": "d3-color:2.0.0"
    },
    {
        "level": 3,
        "name": "d3-time:2.1.1"
    },
    {
        "level": 3,
        "name": "d3-time-format:3.0.0"
    },
    {
        "level": 2,
        "name": "d3-scale-chromatic:2.0.0"
    },
    {
        "level": 2,
        "name": "data-joint:1.2.4"
    },
    {
        "level": 3,
        "name": "index-array-by:1.3.1"
    },
    {
        "level": 2,
        "name": "kapsule:1.13.4"
    },
    {
        "level": 2,
        "name": "ngraph.forcelayout:3.0.2"
    },
    {
        "level": 3,
        "name": "ngraph.events:1.2.1"
    },
    {
        "level": 3,
        "name": "ngraph.merge:1.0.0"
    },
    {
        "level": 3,
        "name": "ngraph.random:1.1.0"
    },
    {
        "level": 2,
        "name": "ngraph.graph:19.1.0"
    },
    {
        "level": 2,
        "name": "tinycolor2:1.4.2"
    },
    {
        "level": 1,
        "name": "uglify-es:3.3.10"
    },
    {
        "level": 2,
        "name": "commander:2.14.1"
    },
    {
        "level": 1,
        "name": "webpack:2.7.0"
    },
    {
        "level": 2,
        "name": "acorn-dynamic-import:2.0.2"
    },
    {
        "level": 2,
        "name": "enhanced-resolve:3.4.1"
    },
    {
        "level": 2,
        "name": "memory-fs:0.4.1"
    },
    {
        "level": 2,
        "name": "tapable:0.2.9"
    },
    {
        "level": 2,
        "name": "json-loader:0.5.7"
    },
    {
        "level": 2,
        "name": "json5:0.5.1"
    },
    {
        "level": 2,
        "name": "loader-runner:2.4.0"
    },
    {
        "level": 2,
        "name": "loader-utils:0.2.17"
    },
    {
        "level": 3,
        "name": "big.js:3.2.0"
    },
    {
        "level": 3,
        "name": "emojis-list:2.1.0"
    },
    {
        "level": 3,
        "name": "errno:0.1.8"
    },
    {
        "level": 4,
        "name": "prr:1.0.1"
    },
    {
        "level": 2,
        "name": "node-libs-browser:2.2.1"
    },
    {
        "level": 3,
        "name": "events:3.3.0"
    },
    {
        "level": 3,
        "name": "timers-browserify:2.0.12"
    },
    {
        "level": 4,
        "name": "setimmediate:1.0.5"
    },
    {
        "level": 3,
        "name": "tty-browserify:0.0.0"
    },
    {
        "level": 3,
        "name": "util:0.11.1"
    },
    {
        "level": 2,
        "name": "watchpack:1.7.5"
    },
    {
        "level": 3,
        "name": "watchpack-chokidar2:2.0.1"
    },
    {
        "level": 3,
        "name": "chokidar:3.5.1"
    },
    {
        "level": 4,
        "name": "anymatch:3.1.2"
    },
    {
        "level": 5,
        "name": "picomatch:2.3.0"
    },
    {
        "level": 4,
        "name": "braces:3.0.2"
    },
    {
        "level": 5,
        "name": "fill-range:7.0.1"
    },
    {
        "level": 6,
        "name": "to-regex-range:5.0.1"
    },
    {
        "level": 7,
        "name": "is-number:7.0.0"
    },
    {
        "level": 4,
        "name": "fsevents:2.3.2"
    },
    {
        "level": 4,
        "name": "glob-parent:5.1.2"
    },
    {
        "level": 4,
        "name": "is-binary-path:2.1.0"
    },
    {
        "level": 5,
        "name": "binary-extensions:2.2.0"
    },
    {
        "level": 4,
        "name": "readdirp:3.5.0"
    },
    {
        "level": 2,
        "name": "webpack-sources:1.4.3"
    },
    {
        "level": 3,
        "name": "source-list-map:2.0.1"
    },
    {
        "level": 2,
        "name": "async:2.6.3"
    },
    {
        "level": 2,
        "name": "uglify-js:2.8.29"
    },
    {
        "level": 3,
        "name": "uglify-to-browserify:1.0.2"
    },
    {
        "level": 3,
        "name": "yargs:3.10.0"
    },
    {
        "level": 4,
        "name": "camelcase:1.2.1"
    },
    {
        "level": 4,
        "name": "cliui:2.1.0"
    },
    {
        "level": 5,
        "name": "center-align:0.1.3"
    },
    {
        "level": 6,
        "name": "align-text:0.1.4"
    },
    {
        "level": 7,
        "name": "longest:1.0.1"
    },
    {
        "level": 6,
        "name": "lazy-cache:1.0.4"
    },
    {
        "level": 5,
        "name": "right-align:0.1.3"
    },
    {
        "level": 5,
        "name": "wordwrap:0.0.2"
    },
    {
        "level": 4,
        "name": "window-size:0.1.0"
    },
    {
        "level": 3,
        "name": "camelcase:3.0.0"
    },
    {
        "level": 3,
        "name": "cliui:3.2.0"
    },
    {
        "level": 4,
        "name": "wrap-ansi:2.1.0"
    },
    {
        "level": 3,
        "name": "get-caller-file:1.0.3"
    },
    {
        "level": 3,
        "name": "os-locale:1.4.0"
    },
    {
        "level": 4,
        "name": "lcid:1.0.0"
    },
    {
        "level": 5,
        "name": "invert-kv:1.0.0"
    },
    {
        "level": 3,
        "name": "require-directory:2.1.1"
    },
    {
        "level": 3,
        "name": "require-main-filename:1.0.1"
    },
    {
        "level": 5,
        "name": "number-is-nan:1.0.1"
    },
    {
        "level": 3,
        "name": "which-module:1.0.0"
    },
    {
        "level": 3,
        "name": "y18n:3.2.2"
    },
    {
        "level": 3,
        "name": "yargs-parser:4.2.1"
    }
]